{
  "$schema": "https://schema.management.azure.com/schemas/2015-01-01/deploymentTemplate.json#",
  "contentVersion": "1.0.0.0",
  "variables": {
    "hostingPlanName": "[replace(resourceGroup().name,'.','')]",
    "resourceGroupID": "[uniqueString(resourceGroup().id)]",
    "siteName": "[concat('website-', uniqueString(resourceGroup().id))]",
    "storageName": "[concat('storage', uniqueString(resourceGroup().id))]",
    "batchName": "[concat('batch', uniqueString(resourceGroup().id))]",
    "L200_LABID": "BATCH_1",
    "sku": "s1",
    "workerSize": "0",
    "repoURL": "https://PrashantPratap@bitbucket.org/ourblue/paasdev.l200.cdn.git",
    "branch": "master"
  },
  "resources": [
    {
      "apiVersion": "2015-08-01",
      "name": "[variables('hostingPlanName')]",
      "type": "Microsoft.Web/serverfarms",
      "location": "[resourceGroup().location]",
      "sku": {
        "name": "[variables('sku')]",
        "capacity": "[variables('workerSize')]"
      },
      "properties": {
        "name": "[variables('hostingPlanName')]"
      }
    },
    {
      "apiVersion": "2015-08-01",
      "name": "[variables('siteName')]",
      "type": "Microsoft.Web/sites",
      "location": "[resourceGroup().location]",
      "dependsOn": [
        "[resourceId('Microsoft.Web/serverfarms', variables('hostingPlanName'))]",
        "[resourceId('Microsoft.Storage/storageAccounts', variables('storageName'))]",
        "[resourceId('Microsoft.Batch/batchAccounts', variables('batchName'))]"
      ],
      "properties": {
        "serverFarmId": "[variables('hostingPlanName')]",
        "siteConfig": {
          "appSettings": [
            {
              "name": "L200_STORAGE",
              "value": "[concat('DefaultEndpointsProtocol=https;AccountName=',variables('storageName'),';AccountKey=',listKeys(resourceId('Microsoft.Storage/storageAccounts', variables('storageName')), '2015-05-01-preview').key1)]"
            },
            {
              "name": "L200_BATCH_KEY",
              "value": "[listKeys(resourceId('Microsoft.Batch/batchAccounts', variables('batchName')), '2017-09-01').Primary]"
            },
            {
              "name": "L200_BATCH_NAME",
              "value": "[listKeys(resourceId('Microsoft.Batch/batchAccounts', variables('batchName')), '2017-09-01').AccountName]"
            },
            {
              "name": "L200_BATCH_URL",
              "value": "[reference(resourceId('Microsoft.Batch/batchAccounts', variables('batchName')), '2017-09-01').accountEndpoint]"
            },
            {
              "name": "L200_STORAGE_KEY",
              "value": "[listKeys(resourceId('Microsoft.Storage/storageAccounts', variables('storageName')), '2015-05-01-preview').key1]"
            },
            {
              "name": "L200_STORAGE_NAME",
              "value": "[variables('storageName')]"
            },
            {
              "name": "L200_ResourceGroupID",
              "value": "[variables('resourceGroupID')]"
            },
            {
              "name": "L200_LABID",
              "value": "[variables('L200_LABID')]"
            }
          ]
        }
      },
      "resources": [
        {
          "type": "sourcecontrols",
          "apiVersion": "2015-08-01",
          "dependsOn": [
            "[resourceId('Microsoft.Web/Sites', variables('siteName'))]"
          ],
          "name": "web",
          "properties": {
            "RepoUrl": "[variables('repoURL')]",
            "branch": "[variables('branch')]",
            "IsManualIntegration": true
          }
        }
      ]
    },
    {
      "type": "Microsoft.Batch/batchAccounts",
      "name": "[variables('batchName')]",
      "apiVersion": "2017-09-01",
      "location": "[resourceGroup().location]",
      "scale": null,
      "properties": {
        "autoStorage": {
          "storageAccountId": "[resourceId('Microsoft.Storage/storageAccounts', variables('storageName'))]"
        },
        "poolAllocationMode": "BatchService"
      },
      "dependsOn": [
        "[resourceId('Microsoft.Storage/storageAccounts', variables('storageName'))]"
      ]
    },
    {
      "type": "Microsoft.Storage/storageAccounts",
      "sku": {
        "name": "Standard_LRS",
        "tier": "Standard"
      },
      "kind": "Storage",
      "name": "[variables('storageName')]",
      "apiVersion": "2017-10-01",
      "location": "[resourceGroup().location]",
      "tags": {},
      "scale": null,
      "properties": {
        "networkAcls": {
          "bypass": "AzureServices",
          "virtualNetworkRules": [],
          "ipRules": [],
          "defaultAction": "Allow"
        },
        "supportsHttpsTrafficOnly": false,
        "encryption": {
          "services": {
            "file": {
              "enabled": true
            },
            "blob": {
              "enabled": true
            }
          },
          "keySource": "Microsoft.Storage"
        }
      },
      "dependsOn": []
    }
  ]
}