{
  "$schema": "http://schema.management.azure.com/schemas/2015-01-01/deploymentTemplate.json#",
  "contentVersion": "1.0.0.0",
  "variables": {
    "hostingPlanName": "[replace(resourceGroup().name,'.','')]",
    "resourceGroupID": "[uniqueString(resourceGroup().id)]",
    "siteName": "[concat('website-', uniqueString(resourceGroup().id))]",
    "storageName": "[concat('l200', uniqueString(resourceGroup().id))]",
      "L200_LABID":"STORAGE_4",
    "sku": "s1",
    "workerSize": "0",
    "repoURL": "https://PrashantPratap@bitbucket.org/ourblue/paasdev.l200.cdn.git",
    "branch": "master"
  },
  "resources": [
    
    {
      "apiVersion": "2015-05-01-preview",
      "type": "Microsoft.Storage/storageAccounts",
      "name": "[variables('storageName')]",
      "location": "[resourceGroup().location]",
      "properties": {
        "accountType": "Standard_LRS"
      }
    },
    {
      "apiVersion": "2015-08-01",
      "name": "[variables('hostingPlanName')]",
      "type": "Microsoft.Web/serverfarms",
      "location": "[resourceGroup().location]",
      "sku": {
        "name": "[variables('sku')]",
        "capacity": "[variables('workerSize')]"
      },
      "properties": {
        "name": "[variables('hostingPlanName')]"
      }
    },
    {
      "apiVersion": "2015-08-01",
      "name": "[variables('siteName')]",
      "type": "Microsoft.Web/sites",
      "location": "[resourceGroup().location]",
      "dependsOn": [
        "[resourceId('Microsoft.Web/serverfarms', variables('hostingPlanName'))]",
        "[resourceId('Microsoft.Storage/storageAccounts', variables('storageName'))]"
      ],
      "properties": {
        "serverFarmId": "[variables('hostingPlanName')]",
        "siteConfig": {
          "appSettings": [
            {
              "name": "L200_STORAGE",
              "value": "[concat('DefaultEndpointsProtocol=https;AccountName=',variables('storageName'),';AccountKey=',listKeys(resourceId('Microsoft.Storage/storageAccounts', variables('storageName')), '2015-05-01-preview').key1)]"
            },
            {
              "name": "L200_ResourceGroupID",
              "value": "[variables('resourceGroupID')]"
            },
            {
                "name":"L200_LABID",
                "value":"[variables('L200_LABID')]"
            }
          ]
        }
      },
      "resources": [
        {
          "apiVersion": "2015-08-01",
          "name": "web",
          "type": "sourcecontrols",
          "dependsOn": [
            "[resourceId('Microsoft.Web/Sites', variables('siteName'))]"
          ],
          "properties": {
            "RepoUrl": "[variables('repoURL')]",
            "branch": "[variables('branch')]",
            "IsManualIntegration": true
          }
        }
      ]
    }
  ]
}