{
  "$schema": "http://schema.management.azure.com/schemas/2015-01-01/deploymentTemplate.json#",
  "contentVersion": "1.0.0.0",
  "variables": {
    "nsgName": "[concat('nsg', uniqueString(resourceGroup().id))]",
    "actionGroupName": "[concat('ag', uniqueString(resourceGroup().id))]",
    "alertsName": "[concat('an', uniqueString(resourceGroup().id))]"

  },
  "parameters": {
    "emailAddress": {
      "type": "string",
      "defaultValue": "ppratap@microsoft.com"
    }
  },
  "resources": [

    {
      "type": "Microsoft.Network/networkSecurityGroups",
      "name": "[variables('nsgName')]",
      "apiVersion": "2017-10-01",
      "location": "[resourceGroup().location]",
      "properties": {
        "securityRules": [
          {
            "properties": {
              "description": "Security Rule Description",
              "protocol": "Tcp",
              "sourcePortRange": "23-45",
              "destinationPortRange": "46-56",
              "sourceAddressPrefix": "*",
              "destinationAddressPrefix": "*",
              "access": "Allow",
              "priority": "123",
              "direction": "Inbound"
            },
            "name": "SecurityRule1"
          }
        ]
      },
      "dependsOn": [
        "[resourceId('microsoft.insights/activityLogAlerts', variables('alertsName'))]"
      ]
    },
    {
      "type": "microsoft.insights/activityLogAlerts",
      "name": "[variables('alertsName')]",
      "apiVersion": "2017-04-01",
      "location": "Global",
      "properties": {
        "scopes": [
          "/subscriptions/25d360ff-1859-4a27-aada-a216484284b3"
        ],
        "condition": {
          "allOf": [
            {
              "field": "category",
              "equals": "Administrative"
            },
            {
              "field": "resourceType",
              "equals": "microsoft.network/networksecuritygroups"
            }
          ]
        },
        "actions": {
          "actionGroups": [
            
          ]
        },
        "enabled": true,
        "description": "desc"
      }
    }
  ]
}